{
  "project_info": {
    "project_number": "272110381071",
    "project_id": "better-life-6f7c7",
    "storage_bucket": "better-life-6f7c7.appspot.com"
  },
  "client": [
    {
      "client_info": {
        "mobilesdk_app_id": "1:272110381071:android:ca0fcfba085fb9ee8f9b7a",
        "android_client_info": {
          "package_name": "tubes.mobile.betterlife"
        }
      },
      "oauth_client": [
        {
          "client_id": "272110381071-somagj0m0jjfqo7ivmh1hq89oog7ehok.apps.googleusercontent.com",
          "client_type": 3
        }
      ],
      "api_key": [
        {
          "current_key": "AIzaSyALSjuABdaF-N4jigw1ANR44H9Aqrj2no4"
        }
      ],
      "services": {
        "appinvite_service": {
          "other_platform_oauth_client": [
            {
              "client_id": "272110381071-somagj0m0jjfqo7ivmh1hq89oog7ehok.apps.googleusercontent.com",
              "client_type": 3
            }
          ]
        }
      }
    }
  ],
  "configuration_version": "1"
}